1328406.3	1	0.000000	0	0.000000	0
1328410.3	2	0.058176	1	0.734058	1
1328412.3	3	0.681386	2	0.505980	2
1328415.3	4	0.374146	2	0.855576	1
1328416.3	5	0.470687	4	0.871636	1
1328417.3	6	0.746561	5	0.899680	1
1328418.3	7	0.621828	5	0.883562	4
1328419.3	8	0.609897	5	0.458928	6
1328420.3	9	0.606787	7	0.654688	4
1328421.3	10	0.634962	5	0.999798	1
1328423.3	1	0.962309	10	0.998780	1
1328424.3	11	0.897982	7	0.862648	1
1328425.3	12	0.743889	10	0.923047	8
1328426.3	13	0.840280	10	0.629245	7
1328427.3	14	0.910446	5	0.838268	5
1329843.3	15	0.827330	12	0.530184	6
1400160.3	1	0.930845	10	0.996878	1
1400161.3	3	0.973297	10	0.983774	3
1400162.3	16	0.892362	10	0.999258	1
1400163.3	17	0.895668	14	0.619175	4
1400164.3	18	0.883556	10	0.867456	1
1400165.3	19	0.810446	12	0.893648	8
1400166.3	20	0.837767	10	0.963501	4
1400167.3	21	0.792479	10	0.640092	1
1400168.3	22	0.800886	20	0.690946	15
1400169.3	23	0.891155	14	0.715061	4
1400170.3	3	0.923265	10	0.943828	3
1400171.3	24	0.492928	10	0.424198	1
1400172.3	25	0.891866	10	0.739297	1
1400173.3	26	0.798995	12	0.886988	1
1400174.3	27	0.898876	10	0.916298	2
1400175.3	28	0.886023	7	0.544043	2
1400176.3	29	0.797776	12	0.715842	22
1400177.3	30	0.820261	10	0.629494	1
1400178.3	1	0.997633	10	0.999906	1
1400179.3	31	0.805089	10	0.917280	1
1400180.3	25	0.939946	10	0.962449	25
1400181.3	3	0.909155	10	0.945340	3
1400182.3	1	0.976337	10	0.999285	1
1400183.3	32	0.746809	12	0.852092	28
1400184.3	3	0.971865	10	0.947591	3
1400185.3	3	0.937326	10	0.946757	3
1438697.3	1	0.992417	10	0.989347	1
1438698.3	33	0.756793	12	0.910000	8
1438699.3	3	0.997279	10	0.935389	3
1438700.3	34	0.452769	7	0.707792	24
1438701.3	3	0.910050	10	0.997891	3
1438702.3	35	0.805901	20	0.876826	15
1438782.3	1	0.993453	10	0.998652	1
1438783.3	36	0.788990	12	0.872317	1
1438784.3	3	0.926815	10	0.972770	3
1438785.3	37	0.882844	35	0.851146	1
1438786.3	38	0.753942	10	0.869738	1
1438787.3	39	0.777623	10	0.880347	1
1438788.3	40	0.929902	38	0.784123	15
1438789.3	41	0.788172	12	0.860031	8
1438790.3	42	0.891917	10	0.998296	3
1438791.3	43	0.743853	34	0.782176	24
1438792.3	44	0.836037	10	0.997074	1
1438793.3	45	0.809550	12	0.864354	1
1438794.3	1	0.906790	10	0.998807	1
1438795.3	46	0.941540	20	0.849969	4
1438796.3	1	0.998950	42	0.978789	1
1438797.3	47	0.768287	10	0.926363	8
1438798.3	38	0.906092	38	0.987191	38
1438799.3	48	0.531156	34	0.718675	34
1438800.3	49	0.901674	10	0.738556	3
1438801.3	50	0.761503	34	0.764096	24
1438802.3	3	0.989662	10	0.945394	3
1438803.3	51	0.843721	12	0.811056	25
1438804.3	52	0.999097	42	0.712766	1
1438805.3	53	0.787071	10	0.912561	52
1438806.3	3	0.951447	10	0.936435	3
1438807.3	1	0.905320	44	0.912052	1
1438808.3	54	0.999155	42	0.715607	3
1438809.3	55	0.791320	10	0.968892	11
1438810.3	54	0.999206	42	0.999345	54
1438811.3	56	0.892445	55	0.878140	52
573.12780	57	0.931502	12	0.319710	6
573.12858	58	0.875701	55	0.907757	1
573.12859	59	0.819939	55	0.897064	1
573.12860	60	0.865564	10	0.996610	52
573.12861	61	0.841262	55	0.911877	57
573.12862	52	0.973460	60	0.995018	52
573.12863	62	0.839759	60	0.914589	52
573.12864	52	0.975903	60	0.996564	52
573.12865	35	0.917035	55	0.958326	35
573.12867	63	0.842711	55	0.903497	57
573.12868	64	0.868046	63	0.900307	57
573.12869	65	0.883920	62	0.895788	57
573.12870	66	0.881676	38	0.923958	40
573.12871	4	0.900868	60	0.959263	4
573.12872	67	0.877709	60	0.903802	52
573.12873	68	0.890399	62	0.842627	57
573.12874	69	0.848406	62	0.908251	57
573.12875	70	0.849685	62	0.918137	52
573.12876	66	0.940497	66	0.909002	66
573.12877	63	0.984556	63	0.987109	63
573.12878	35	0.940775	55	0.958095	35
573.12879	71	0.874248	66	0.879032	15
573.12880	52	0.968209	60	0.996836	52
573.12881	72	0.899533	62	0.907224	57
573.12882	73	0.908764	62	0.876352	52
573.12883	68	0.980600	68	0.984368	68
573.12884	52	0.975144	60	0.997026	52
573.12885	57	0.905505	62	0.905834	57
573.12886	74	0.858550	62	0.911757	73
573.12887	52	0.986871	60	0.995376	52
573.12888	52	0.966727	60	0.991970	52
573.12889	75	0.847184	60	0.873485	15
573.12890	37	0.954238	55	0.972159	37
573.12891	76	0.866302	70	0.878090	52
573.12892	77	0.882125	70	0.904168	57
573.12893	63	0.953402	63	0.967496	63
573.12894	63	0.989192	63	0.975999	63
573.12895	78	0.862785	60	0.910457	1
573.12896	78	0.981033	78	0.990348	78
573.12897	15	0.963527	66	0.930183	15
573.12898	63	0.984948	63	0.960447	63
573.12899	79	0.862196	55	0.857984	52
573.12900	80	0.855554	62	0.908202	1
573.12901	81	0.868991	62	0.911752	52
573.12902	82	0.869711	55	0.893669	1
573.12903	83	0.879805	55	0.910484	57
573.12904	84	0.878196	70	0.912369	52
573.12905	63	0.992232	63	0.998216	63
573.12906	35	0.918551	55	0.916739	35
573.12907	85	0.950374	74	0.877129	52
573.12908	86	0.855595	55	0.871096	1
573.12909	52	0.975882	60	0.995501	52
573.12910	87	0.836259	62	0.903980	57
573.12911	78	0.998201	78	0.933446	78
573.12912	11	0.907806	55	0.928616	11
573.12913	52	0.985754	60	0.996243	52
573.12914	88	0.853649	70	0.890002	57
573.12915	89	0.891617	75	0.825217	57
573.12916	90	0.860829	55	0.910365	57
